<svg xmlns="http://www.w3.org/2000/svg" viewBox="0 0 61.26 71.35">
  <defs>
    <style>
      .cls-1 {
        fill: gray;
      }
    </style>
  </defs>
  <title>Icon-mono-gray</title>
  <g id="Layer_2" data-name="Layer 2">
    <g id="Layer_1-2" data-name="Layer 1">
      <g id="Icon-mono-gray">
        <path class="cls-1" d="M38,62.7a2.51,2.51,0,1,0-2.51,2.52A2.51,2.51,0,0,0,38,62.7"/>
        <path class="cls-1" d="M34.67,43.51a11.47,11.47,0,0,0-4.79-2.31c-3.54-.55-17.84,10.06-18,13.57-.2,3.73-.19,9.48-.15,14.79a36.32,36.32,0,0,0,4.94,1.79c0-4.67,0-9.74-.09-12.57s.85-4.32,3-5.89c9.88-7.16,9.77-7.14,19.7,0a6.55,6.55,0,0,1,3,6.28c-.1,2.64-.1,6.5-.08,10.26a36.31,36.31,0,0,0,5-2.76c-.21-16.79,2.45-12-12.54-23.12"/>
        <path class="cls-1" d="M5.1,51.67a6.53,6.53,0,0,1,3-4.77C19,38.76,30.87,30,45.62,19.42c.6-.43,1.2-.85,1.82-1.27l0,0,.64-.48.55-.38.43-.25L49,17l6.48-4.83a36.68,36.68,0,0,0-3.47-3.69l-1.18.8-6.64,4.83c-12.85,9.36-26.13,19-39.17,28.66l0-28.11V5.55A37.77,37.77,0,0,0,0,10V61.32a37.15,37.15,0,0,0,5.1,4.44Z"/>
        <path class="cls-1" d="M12.43,27.72a2.78,2.78,0,0,0,1.23.29,2.74,2.74,0,0,0,1.62-.54L46.52,4.23a37,37,0,0,0-4.61-2.47L16.48,20.08V0a36.13,36.13,0,0,0-5.54,2.1V25.29a2.72,2.72,0,0,0,1.49,2.43"/>
        <path class="cls-1" d="M53.77,61.13a37.27,37.27,0,0,0,4.89-6.47c0-.82,0-1.65.05-2.47A9.82,9.82,0,0,0,54,43.05c-3.54-2.38-6.9-5-10.66-7.78l9.41-7,.3-.21h0l8.27-6.15a36.63,36.63,0,0,0-2.09-4.38l-2.36,1.71v0L53.37,21.7l-6.11,4.4,0,0c-2.77,2-5.5,4.08-8.17,6.2-2.39,1.9-1.92,4.53.54,6.41,3.33,2.55,6.63,5.16,10.18,7.38,3.08,1.94,4.24,4.33,4.08,8-.1,2.34-.14,4.69-.14,7"/>
      </g>
    </g>
  </g>
</svg>
