<svg xmlns="http://www.w3.org/2000/svg" viewBox="0 0 472.07 88.11">
  <defs>
    <style>
      .cls-1 {
        fill: white;
      }
    </style>
  </defs>
  <title>logo-secondary-mono</title>
  <g id="Layer_2" data-name="Layer 2">
    <g id="Layer_1-2" data-name="Layer 1">
      <g>
        <polygon class="cls-1" points="89.9 22.23 98.71 22.23 98.71 39.75 114.97 22.23 125.62 22.23 109.3 39.24 126.36 62.31 115.77 62.31 103.35 45.25 98.71 50.06 98.71 62.31 89.9 62.31 89.9 22.23"/>
        <path class="cls-1" d="M152.52,42.39v-.12c0-11.39,9-20.72,21.36-20.72s21.23,9.21,21.23,20.61v.11c0,11.39-9,20.72-21.35,20.72s-21.24-9.21-21.24-20.6m33.38,0v-.12c0-6.87-5-12.59-12.14-12.59s-12,5.61-12,12.48v.11c0,6.87,5,12.59,12.14,12.59s12-5.6,12-12.47"/>
        <polygon class="cls-1" points="228.72 22.23 236.85 22.23 255.62 46.91 255.62 22.23 264.33 22.23 264.33 62.31 256.83 62.31 237.42 36.83 237.42 62.31 228.72 62.31 228.72 22.23"/>
        <polygon class="cls-1" points="299.7 22.23 330.22 22.23 330.22 30.25 308.52 30.25 308.52 38.78 327.64 38.78 327.64 46.79 308.52 46.79 308.52 62.31 299.7 62.31 299.7 22.23"/>
        <path class="cls-1" d="M361.25,42.39v-.12c0-11.39,9-20.72,21.35-20.72s21.24,9.21,21.24,20.61v.11c0,11.39-9,20.72-21.36,20.72s-21.23-9.21-21.23-20.6m33.37,0v-.12c0-6.87-5-12.59-12.14-12.59s-12,5.61-12,12.48v.11c0,6.87,5,12.59,12.14,12.59s12-5.6,12-12.47"/>
        <path class="cls-1" d="M437.44,22.24h18.32c5.09,0,9,1.43,11.68,4.06a12.58,12.58,0,0,1,3.43,9.16v.11c0,6.47-3.49,10.54-8.58,12.43l9.78,14.31h-10.3l-8.59-12.83h-6.92V62.31h-8.82ZM455.19,41.7c4.29,0,6.75-2.29,6.75-5.67v-.11c0-3.78-2.63-5.73-6.93-5.73h-8.75V41.7Z"/>
        <path class="cls-1" d="M47,77.42a3.1,3.1,0,1,0-3.1,3.11A3.1,3.1,0,0,0,47,77.42"/>
        <path class="cls-1" d="M42.81,53.73a14.18,14.18,0,0,0-5.91-2.85c-4.38-.69-22,12.42-22.26,16.75-.25,4.61-.23,11.7-.19,18.26a45.86,45.86,0,0,0,6.11,2.22c0-5.78,0-12-.12-15.53-.13-3.31,1.06-5.33,3.73-7.27,12.21-8.84,12.08-8.82,24.34,0A8.09,8.09,0,0,1,52.27,73c-.12,3.25-.12,8-.1,12.67a45.7,45.7,0,0,0,6.13-3.41c-.26-20.74,3-14.77-15.49-28.55"/>
        <path class="cls-1" d="M6.29,63.8c.25-2.34,1.37-4.11,3.74-5.89,13.38-10,28.09-20.84,46.3-33.93.74-.53,1.49-1.05,2.24-1.57l0,0,.79-.59.68-.46.53-.32,0-.07,8-6a45.11,45.11,0,0,0-4.29-4.56l-1.46,1-8.19,6C38.76,29,22.35,40.93,6.25,52.81l0-34.7V6.85A46.27,46.27,0,0,0,0,12.33V75.72A46.36,46.36,0,0,0,6.3,81.2Z"/>
        <path class="cls-1" d="M15.36,34.22a3.28,3.28,0,0,0,1.5.36,3.33,3.33,0,0,0,2-.66L57.45,5.22a47.13,47.13,0,0,0-5.7-3L20.35,24.8V0a45,45,0,0,0-6.84,2.59V31.23a3.31,3.31,0,0,0,1.85,3"/>
        <path class="cls-1" d="M66.39,75.48a46.17,46.17,0,0,0,6-8q0-1.53.06-3.06a12.12,12.12,0,0,0-5.88-11.28c-4.37-2.94-8.52-6.2-13.16-9.61l11.61-8.64.37-.27h0L75.65,27a47,47,0,0,0-2.58-5.4l-2.92,2.1v0l-4.24,3.07-7.55,5.44s0,0,0,0c-3.42,2.51-6.79,5-10.08,7.65-2.95,2.35-2.38,5.6.66,7.92C53.07,51,57.15,54.21,61.53,57c3.81,2.39,5.24,5.34,5,9.84-.13,2.89-.17,5.79-.18,8.69"/>
      </g>
    </g>
  </g>
</svg>
